%YAML 1.1
%TAG !u! tag:unity3d.com,2011:
--- !u!114 &11400000
MonoBehaviour:
  m_ObjectHideFlags: 0
  m_CorrespondingSourceObject: {fileID: 0}
  m_PrefabInstance: {fileID: 0}
  m_PrefabAsset: {fileID: 0}
  m_GameObject: {fileID: 0}
  m_Enabled: 1
  m_EditorHideFlags: 0
  m_Script: {fileID: 11500000, guid: b90fb3c0471debc44b24116a9cdcab23, type: 3}
  m_Name: Level3
  m_EditorClassIdentifier: 
  ItemGroupList:
  - ItemList:
    - {fileID: 3444534402181285366, guid: 9ba097e5d163c5c40900fc6e598fdab4, type: 3}
    - {fileID: 4346441779064043045, guid: fa45ae0334759964c8f03a9d85e27ee1, type: 3}
